                vars  n        mean    sd   median     trimmed    mad      min
Date               1 37 20240895.59 38.25 20240911 20240899.68  13.34 20240820
S.Stress           2 37        3.78  0.82        4        3.77   1.48        2
S.Mood             3 37        3.65  0.54        4        3.65   0.00        3
S.Sleep            4 37        3.30  0.70        3        3.35   1.48        2
S.Soreness         5 37        3.84  0.87        4        3.90   1.48        2
S.Fatigue          6 37        3.30  0.66        3        3.35   1.48        2
AWQ                7 37       17.86  1.83       18       17.94   1.48       14
G.RHR              8 37       54.24  4.18       53       54.06   4.45       47
G.Stress           9 37       29.92 11.48       28       29.00  10.38       11
M.Recovery        10 37       78.57 11.85       83       79.29  10.38       51
M.HRV             11 37       68.51  7.78       70       68.81   7.41       49
M.Weekly.RECa     12 37      317.32 76.24      318      321.35  91.92      179
M.Weekly.RECb     13 37      274.81 16.25      274      276.32   2.97      240
M.Weekly.RECc     14 37       42.51 77.96       40       47.84  83.03     -110
M.Weekly.CONa     15 37       45.68  8.24       49       45.90   8.90       34
M.Weekly.CONb     16 37       53.19  7.89       54       54.29   7.41       35
M.Weekly.CONc     17 37       -7.51  7.75       -6       -7.23  10.38      -20
M.Weekly.OVRa     18 37       31.97  4.53       30       31.39   2.97       28
M.Weekly.OVRb     19 37       20.14  4.55       22       20.65   2.97       10
M.Weekly.OVRc     20 37       11.84  8.71        7       10.45   1.48        6
M.Weekly.TOTALa   21 37      394.97 81.55      399      398.35 103.78      256
M.Weekly.TOTALb   22 37      348.14 27.66      348      351.26  13.34      285
M.Weekly.TOTALc   23 37       46.84 82.38       74       51.16  80.06     -102
                     max range  skew kurtosis    se
Date            20240929   109 -1.20    -0.37  6.29
S.Stress               5     3  0.10    -1.04  0.13
S.Mood                 5     2 -0.07    -1.02  0.09
S.Sleep                4     2 -0.45    -0.97  0.12
S.Soreness             5     3 -0.44    -0.47  0.14
S.Fatigue              4     2 -0.37    -0.86  0.11
AWQ                   21     7 -0.36    -0.26  0.30
G.RHR                 66    19  0.53    -0.13  0.69
G.Stress              60    49  0.79     0.13  1.89
M.Recovery            96    45 -0.69    -0.53  1.95
M.HRV                 86    37 -0.31     0.06  1.28
M.Weekly.RECa        414   235 -0.23    -1.12 12.53
M.Weekly.RECb        294    54 -0.95     0.27  2.67
M.Weekly.RECc        140   250 -0.39    -0.78 12.82
M.Weekly.CONa         55    21 -0.29    -1.64  1.36
M.Weekly.CONb         60    25 -1.46     0.97  1.30
M.Weekly.CONc          2    22 -0.31    -1.13  1.27
M.Weekly.OVRa         42    14  1.30     0.42  0.74
M.Weekly.OVRb         25    15 -1.24     0.58  0.75
M.Weekly.OVRc         32    26  1.58     0.97  1.43
M.Weekly.TOTALa      499   243 -0.17    -1.30 13.41
M.Weekly.TOTALb      379    94 -1.33     0.97  4.55
M.Weekly.TOTALc      151   253 -0.32    -1.14 13.54
