	Systolic	Diastolic	MAP	RHR	CVL	Carb	Fat	Protein	Fat:Protein	K	NA	NA-K-Ratio	Sleep Score	
Control														
1/15/22	133	84	100.33	63	6321	4	165	166	0.99	2149	7502	3.49	73	
1/16/22	148	88	108.00	67	7236	4	330	194	1.70	2465	5804	2.35	77	
1/17/22	160	81	107.33	54	5796	0	273	209	1.31	3061	9328	3.05	82	
1/18/22	144	77	99.33	63	6258	9	282	231	1.22	2483	6949	2.80	79	
1/19/22	140	90	106.67	58	6186.666667	12	218	223	0.98	3066	6774	2.21	82	
1/20/22	150	91	110.67	65	7193.333333	0	344	232	1.48	3492	8983	2.57	73	
1/21/22	149	81	103.67	57	5909	50	152	130	1.17	1720	11480	6.67	74	
1/22/22	138	83	101.33	68	6890.666667	3	258	237	1.09	4303	8482	1.97	79	
1/23/22	133	83	99.67	54	5382	7	319	256	1.25	6627	3687	0.56	74	
1/24/22	147	89	108.33	64	6933.333333	9	272	221	1.23	3395	10701	3.15	82	
1/25/22	153	87	109.00	67	7303	0	215	178	1.21	2536	4199	1.66	70	
1/26/22	133	89	103.67	62	6427.333333	11	209	201	1.04	2189	6651	3.04	73	
1/28/22	146	82	103.33	73	7543.333333	0	208	190	1.09	1414	5147	3.64	70	
1/29/22	137	90	105.67	71	7502.333333	0	302	227	1.33	2775	5788	2.09	80	
