Date,Vitamin-D,Magnesium,Animal-Stak,Creatine-Sup,Sleep-Quality,Mood,Soreness,Stress,Fatigue,AWQ,Erectile-Function,Sex-Drive,Low-T-Symptoms,Sleep-Total,Sleep-Deep,Sleep-Deep-Perc,Bed-Time,Animal-PM,Melatonin,Dream-Tea
20230824,3624,400,0,5,2,2,3,5,3,15,2,3,10,7.08,2.47,35,2311,0,0,0
20230825,3500,0,0,2.5,2,3,3,4,3,15,3,3,8,4.63,1.85,40,2548,0,0,0
20230826,22000,425,1,5,3,3,4,3,4,17,3,4,6,9.60,3.50,36,2328,0,0,0
20230827,6213,475,1,5,3,3,4,3,3,16,3,4,7,5.52,1.80,33,2504,0,0,0
20230828,2962,425,1,5,3,3,4,4,3,17,4,3,7,8.38,3.03,36,2223,0,0,0
20230829,2888,475,1,5,2,3,4,4,3,16,4,3,7,6.90,2.10,30,2351,0,0,0
20230830,1000,475,1,5,3,3,4,3,2,15,3,4,8,7.18,2.87,40,2310,0,0,0
20230831,4323,475,1,5,4,4,3,4,3,18,3,3,7,8.55,4.53,53,2158,0,0,0
20230901,1000,475,1,5,4,4,3,4,3,18,3,3,7,7.70,3.00,39,2258,0,0,0
20230902,15000,475,1,5,4,4,3,5,2,18,4,4,6,6.87,3.33,49,2409,0,0,0
20230903,13000,475,1,5,3,4,3,4,3,17,4,3,6,8.38,2.52,30,2311,0,0,0
20230904,21000,475,1,5,4,5,3,5,2,19,3,3,7,7.05,2.68,38,2410,0,0,0
20230905,4501,475,1,5,3,3,4,4,4,18,2,3,8,8.33,3.13,38,2233,0,0,0
20230906,6066,475,1,5,2,3,4,3,2,14,3,3,9,9.05,3.00,33,2138,0,0,0
20230907,8407,525,1,5,2,3,3,3,3,14,3,4,7,8.72,3.68,42,2157,0,0,0
20230908,5548,475,1,5,4,4,4,4,3,19,3,4,6,8.32,3.67,44,2211,0,0,0
20230909,9566,475,1,5,4,5,2,4,3,18,3,3,6,7.48,2.13,29,2331,0,0,0
20230910,16818,425,1,5,3,4,3,4,4,18,2,3,7,6.23,2.03,33,2546,0,0,0
20230911,6280,475,1,5,2,4,3,4,2,15,4,3,7,7.73,2.37,31,2257,0,0,0
20230912,1450,475,1,5,3,3,3,3,3,15,4,3,7,7.80,2.53,32,2253,0,0,0
20230913,1000,475,1,5,3,3,3,4,3,16,3,4,7,7.93,0.75,9,2147,0,0,0
20230914,1000,475,1,5,3,4,4,4,3,18,4,3,6,8.67,2.10,24,2207,0,0,0
20230915,1000,475,1,5,3,5,3,4,3,18,3,3,6,7.73,1.72,22,2317,0,0,0
20230916,0,80,0,5,2,4,4,4,2,16,3,4,7,8.22,1.75,21,2356,0,0,0
20230917,20000,50,0,5,3,3,3,3,4,16,4,4,5,7.40,2.30,31,2500,0,0,0
20230918,4260,50,0,5,3,3,2,3,3,14,3,2,9,6.92,2.22,32,2401,0,0,0
20230919,4650,100,0,5,3,2,3,2,2,12,3,3,10,8.77,2.55,29,2215,0,0,0
20230920,0,50,0,5,2,3,4,2,3,14,2,2,10,5.78,3.02,52,2519,0,0,0
20230921,1825,50,0,5,3,2,2,2,4,13,3,3,8,8.40,2.05,24,2236,0,0,0
20230922,1786,50,0,5,3,4,3,3,3,16,4,3,6,7.65,2.48,32,2327,0,0,0
20230923,9561,50,0,0,2,4,3,4,2,15,2,4,8,6.42,1.38,22,2311,0,0,0
20230924,19729,0,0,0,3,3,2,3,3,14,2,3,9,7.57,2.40,32,2359,0,0,0
20230925,2180,50,0,0,2,3,2,2,2,11,3,2,10,9.48,3.38,36,2131,0,0,0
20230926,0,50,0,0,3,4,3,2,2,14,4,3,7,8.12,2.83,35,2253,0,0,0
20230927,0,50,0,0,3,3,3,3,3,15,3,2,9,7.88,2.65,34,2307,0,0,0
20230928,990,100,0,0,3,3,2,3,2,13,3,3,9,7.53,3.13,42,2329,0,0,0
20230929,3027,0,0,0,4,4,4,3,3,18,4,3,6,7.83,2.52,32,2314,0,0,0
20231009,4074,425,1,5,3,3,2,3,4,15,3,3,7,9.88,3.53,36,2122,0,3,0
20231010,4789,425,1,5,4,3,4,3,3,17,3,3,8,9.18,3.17,34,2209,0,0,2
20231011,1000,425,1,0,4,3,3,2,2,14,4,2,9,8.35,3.17,38,2252,0,0,0
20231012,1300,425,1,0,4,4,2,2,3,15,2,4,7,8.67,3.08,36,2235,0,3,2
20231013,300,0,0,0,3,3,3,4,2,15,3,2,10,8.48,3.05,36,2251,0,3,0
20231014,2855,950,2,0,2,5,4,2,2,15,4,5,4,8.03,2.88,36,2501,0,0,2
20231015,1000,980,1,0,5,3,2,3,3,16,3,4,7,7.90,3.32,42,2459,1,3,1
20231016,1000,635,1,5,4,2,3,2,3,14,2,3,10,7.22,2.95,41,2402,1,3,1
20231017,2300,740,1,5,4,4,2,2,4,16,4,4,4,8.50,3.68,43,2246,0,3,2
20231018,1000,740,1,0,4,3,3,3,4,17,3,4,6,7.75,3.07,40,2329,0,0,2
20231019,1000,635,1,0,4,3,2,4,3,16,5,5,4,8.23,2.87,35,2301,0,0,2
20231020,2320,740,1,0,3,4,2,3,2,14,3,2,9,7.30,2.48,34,2301,0,3,0
20231021,3310,875,1,5,2,4,3,4,4,17,4,4,4,7.10,1.88,27,2552,1,3,1
20231022,2700,875,1,0,3,4,3,4,4,18,3,4,5,10.30,3.27,32,2245,0,0,0
20231023,2005,1231,1,5,2,3,4,3,2,14,3,3,9,5.37,1.00,19,2255,1,3,1
20231024,2826,899,1,5,4,3,2,2,3,14,3,4,7,8.28,2.28,28,2228,1,3,1
20231025,1400,665,1,0,4,3,3,2,2,14,3,3,9,8.43,3.18,38,2230,1,3,1
20231026,2512,425,1,0,4,2,3,2,3,14,3,2,10,7.65,2.52,33,2312,0,0,0
20231027,1300,425,1,0,4,4,3,3,3,17,2,4,7,8.02,3.07,38,2246,0,0,0
20231028,6397,875,1,0,3,4,2,4,2,15,2,4,8,8.37,3.90,47,2425,0,0,0
20231029,3290,631,0,0,2,3,3,2,3,13,3,3,8,7.42,1.85,25,2537,0,0,0
20231030,1754,450,0,5,3,3,2,3,3,14,2,3,9,8.02,3.25,41,2254,1,3,1
20231031,0,450,0,5,3,4,4,3,2,16,3,3,8,8.35,2.92,35,2224,1,3,1
20231101,0,450,0,0,4,4,2,3,4,17,3,2,7,8.58,3.33,39,2211,1,3,1
20231102,0,450,0,0,3,3,2,4,2,14,3,3,9,8.62,2.47,29,2218,1,3,1
20231103,0,450,0,0,4,3,3,3,2,15,3,4,8,8.40,3.17,38,2231,0,0,0
20231104,5000,450,0,0,3,4,2,4,2,15,4,3,7,9.23,3.00,32,2328,1,3,1
20231105,7400,500,0,0,3,3,2,3,3,14,3,2,9,8.55,2.75,32,2456,0,0,0
20231106,380,450,0,5,3,2,3,2,2,12,2,3,11,8.42,2.33,28,2222,1,3,1
20231107,421,450,0,5,4,3,3,3,3,16,4,3,7,9.33,4.00,43,2127,1,3,1
20231108,1750,875,1,0,2,3,3,3,2,13,2,4,9,8.37,2.17,26,2224,1,3,1
20231109,1340,875,1,0,2,4,3,3,2,14,3,3,8,8.57,1.52,18,2210,1,3,1
20231110,600,450,0,0,4,4,2,2,4,16,2,3,7,7.83,3.03,39,2257,1,3,1
20231111,750,875,1,5,3,3,2,3,2,13,3,4,8,8.23,2.60,32,2356,0,0,0
20231112,1100,975,1,0,4,4,2,2,2,14,3,3,8,10.92,3.32,30,2210,1,3,1
20231113,1690,875,1,5,4,3,3,3,3,16,3,4,7,8.68,3.53,41,2208,1,3,1
20231114,1100,875,1,5,3,3,4,4,2,16,3,3,9,9.03,3.32,37,2145,1,3,1
20231115,1000,940,1,0,4,4,3,4,3,18,3,4,6,8.92,2.87,32,2153,1,3,1
20231116,1000,875,1,0,3,3,2,3,3,14,3,4,7,8.58,2.28,27,2216,1,3,1
20231117,1000,425,1,5,3,3,2,4,4,16,3,3,7,8.08,3.17,39,2244,1,3,1
20231118,3406,475,1,0,2,4,2,2,3,13,4,4,5,7.95,2.62,33,2410,0,0,0
20231119,4900,875,1,5,3,3,3,2,4,15,3,3,7,8.62,3.22,37,2338,1,3,1
20231120,1756,875,1,5,4,3,4,4,4,19,3,4,6,8.65,3.25,38,2212,1,3,1
20231121,1252,875,1,5,4,3,3,4,3,17,3,3,8,7.98,3.12,39,2252,1,3,1
20231122,1596,875,1,0,4,4,3,4,3,18,3,4,6,8.60,3.60,42,2209,1,3,1
20231123,1504,875,1,0,4,4,2,4,2,16,2,4,8,9.45,3.15,33,2225,1,3,1
20231124,1000,875,1,5,4,4,2,4,2,16,3,3,8,9.40,3.85,41,2225,1,3,1
20231125,2361,875,1,0,3,3,2,4,1,13,2,3,11,9.92,2.67,27,2220,1,3,1
