Mood,Energy,Creativity,Social,Sleep,Intervention,,Interventions:,,,,,Literature:,,,,,,,
3,2,4,3,76,Control,,"PSL1 = 0.3mg, fasted ~20 hours prior, ingested @ 1700",,,,,CBD (oral) halflife = 2-5 days,,,,,,,
3,3,3,3,84,Control,,Notes:,,,,,Psilocybin halflife = 8 - 72 hours,,,,,,,
4,3,3,4,81,Control,,,,,,,,https://pubmed.ncbi.nlm.nih.gov/28353056/,,,,,,
3,2,2,3,80,Control,,"strongest effect, ""vibe"", kind of like level 2 drunk w/o sloppiness or hangover",,,,,,https://www.sciencedirect.com/referencework/9780444537164/meylers-side-effects-of-drugs,,,,,,
4,3,3,3,80,Control,,,,,,,,https://www.sciencedirect.com/science/article/pii/B9780128002124000844,,,,,,
3,2,4,2,77,Control,,"ingest too late, didn't sleep well",,,,,*see respective newsletter editions,,,,,,,
3,2,3,2,77,Control,,,,,,,,,,,,,,
4,3,4,3,,PSL1,1 hour,,,,,,,,,,,,,
5,3,5,3,,PSL1,2 hours,,,,,,,,,,,,,
4,3,3,3,,PSL1,4 hours,,,,,,,,,,,,,
2,2,3,3,70,PSL1,24 hours,,,,,,,,,,,,,
,,,,,,,,,,,,,,,,,,,
Date,20240113,20240114,20240116,20240117,20240119,20240120,20240121,20240122,20240123,20240124,20240125,20240126,20240127,20240128,20240129,20240130,20240131,20240201,20240102
Protein,197,249.2,347.6,296.3,298,303,297.4,325.7,323.7,272.3,385.2,334.5,246.8,142.7,347.6,345.7,396.3,303,439.5
Carbs,7.3,73.7,38.4,5.3,6.7,73.2,9.6,9.8,68.1,25.5,101.5,42.9,310.7,46.9,33.9,31.9,59.4,81.6,110.2
Fat,129.3,99.1,138.4,203.5,174.1,208,198.2,171.7,229.2,228.4,146.8,178.5,318.9,152.6,233.9,234.8,255.1,218.7,187.4
Fat-Carb-Ratio,17.71,1.34,3.60,0.69,25.99,2.84,20.65,17.52,3.37,8.96,1.45,4.16,1.03,3.25,6.90,7.36,4.29,2.68,1.70
Fat-Protein-Ratio,0.66,0.40,0.40,0.69,0.58,0.69,0.67,0.53,0.71,0.84,0.38,0.53,1.29,1.07,0.67,0.68,0.64,0.72,0.43
BG-Fasted,120,109,103,110,113,101,98,112,127,96,109,101,97,96,102,107,91,110,99