              X Systolic Diastolic   MAP   RHR CVL  Carb   Fat Protein
X             1       NA        NA    NA    NA  NA    NA    NA      NA
Systolic     NA     1.00     -0.18  0.61 -0.04  NA -0.02  0.19   -0.10
Diastolic    NA    -0.18      1.00  0.67  0.09  NA -0.02  0.06   -0.05
MAP          NA     0.61      0.67  1.00  0.04  NA -0.03  0.20   -0.12
RHR          NA    -0.04      0.09  0.04  1.00  NA  0.22  0.08    0.05
CVL          NA       NA        NA    NA    NA   1    NA    NA      NA
Carb         NA    -0.02     -0.02 -0.03  0.22  NA  1.00 -0.15    0.09
Fat          NA     0.19      0.06  0.20  0.08  NA -0.15  1.00    0.34
Protein      NA    -0.10     -0.05 -0.12  0.05  NA  0.09  0.34    1.00
Fat.Protein  NA     0.28      0.11  0.31  0.02  NA -0.26  0.54   -0.59
K            NA    -0.18      0.04 -0.11 -0.16  NA  0.14  0.47    0.69
NA.          NA     0.37     -0.21  0.11 -0.01  NA  0.49  0.02   -0.27
NA.K.Ratio   NA     0.27     -0.28 -0.02 -0.04  NA  0.20 -0.41   -0.72
Sleep.Score  NA    -0.24      0.00 -0.19 -0.32  NA  0.28  0.06    0.23
FitBit.Steps NA    -0.08      0.02 -0.04  0.13  NA  0.26  0.16    0.16
             Fat.Protein     K   NA. NA.K.Ratio Sleep.Score FitBit.Steps
X                     NA    NA    NA         NA          NA           NA
Systolic            0.28 -0.18  0.37       0.27       -0.24        -0.08
Diastolic           0.11  0.04 -0.21      -0.28        0.00         0.02
MAP                 0.31 -0.11  0.11      -0.02       -0.19        -0.04
RHR                 0.02 -0.16 -0.01      -0.04       -0.32         0.13
CVL                   NA    NA    NA         NA          NA           NA
Carb               -0.26  0.14  0.49       0.20        0.28         0.26
Fat                 0.54  0.47  0.02      -0.41        0.06         0.16
Protein            -0.59  0.69 -0.27      -0.72        0.23         0.16
Fat.Protein         1.00 -0.25  0.18       0.27       -0.16        -0.07
K                  -0.25  1.00 -0.13      -0.69        0.15         0.26
NA.                 0.18 -0.13  1.00       0.67        0.20         0.33
NA.K.Ratio          0.27 -0.69  0.67       1.00       -0.11         0.05
Sleep.Score        -0.16  0.15  0.20      -0.11        1.00         0.06
FitBit.Steps       -0.07  0.26  0.33       0.05        0.06         1.00

n
             X Systolic Diastolic MAP RHR CVL Carb Fat Protein Fat.Protein  K
X            0        0         0   0   0   0    0   0       0           0  0
Systolic     0       28        28  28  28   0   28  28      28          28 28
Diastolic    0       28        28  28  28   0   28  28      28          28 28
MAP          0       28        28  28  28   0   28  28      28          28 28
RHR          0       28        28  28  28   0   28  28      28          28 28
CVL          0        0         0   0   0   0    0   0       0           0  0
Carb         0       28        28  28  28   0   28  28      28          28 28
Fat          0       28        28  28  28   0   28  28      28          28 28
Protein      0       28        28  28  28   0   28  28      28          28 28
Fat.Protein  0       28        28  28  28   0   28  28      28          28 28
K            0       28        28  28  28   0   28  28      28          28 28
NA.          0       28        28  28  28   0   28  28      28          28 28
NA.K.Ratio   0       28        28  28  28   0   28  28      28          28 28
Sleep.Score  0       28        28  28  28   0   28  28      28          28 28
FitBit.Steps 0       28        28  28  28   0   28  28      28          28 28
             NA. NA.K.Ratio Sleep.Score FitBit.Steps
X              0          0           0            0
Systolic      28         28          28           28
Diastolic     28         28          28           28
MAP           28         28          28           28
RHR           28         28          28           28
CVL            0          0           0            0
Carb          28         28          28           28
Fat           28         28          28           28
Protein       28         28          28           28
Fat.Protein   28         28          28           28
K             28         28          28           28
NA.           28         28          28           28
NA.K.Ratio    28         28          28           28
Sleep.Score   28         28          28           28
FitBit.Steps  28         28          28           28

P
             X Systolic Diastolic MAP    RHR    CVL Carb   Fat    Protein
X                                                                        
Systolic                0.3553    0.0005 0.8242     0.9085 0.3276 0.5971 
Diastolic      0.3553             0.0001 0.6338     0.9336 0.7493 0.7980 
MAP            0.0005   0.0001           0.8319     0.8779 0.3161 0.5437 
RHR            0.8242   0.6338    0.8319            0.2554 0.6942 0.8073 
CVL                                                                      
Carb           0.9085   0.9336    0.8779 0.2554            0.4362 0.6506 
Fat            0.3276   0.7493    0.3161 0.6942     0.4362        0.0797 
Protein        0.5971   0.7980    0.5437 0.8073     0.6506 0.0797        
Fat.Protein    0.1418   0.5734    0.1141 0.9001     0.1837 0.0032 0.0009 
K              0.3592   0.8532    0.5881 0.4125     0.4656 0.0112 0.0000 
NA.            0.0507   0.2853    0.5620 0.9753     0.0086 0.9136 0.1661 
NA.K.Ratio     0.1640   0.1524    0.9265 0.8318     0.2973 0.0288 0.0000 
Sleep.Score    0.2101   0.9918    0.3409 0.0993     0.1496 0.7651 0.2424 
FitBit.Steps   0.6944   0.9243    0.8253 0.5105     0.1800 0.4024 0.4086 
             Fat.Protein K      NA.    NA.K.Ratio Sleep.Score FitBit.Steps
X                                                                         
Systolic     0.1418      0.3592 0.0507 0.1640     0.2101      0.6944      
Diastolic    0.5734      0.8532 0.2853 0.1524     0.9918      0.9243      
MAP          0.1141      0.5881 0.5620 0.9265     0.3409      0.8253      
RHR          0.9001      0.4125 0.9753 0.8318     0.0993      0.5105      
CVL                                                                       
Carb         0.1837      0.4656 0.0086 0.2973     0.1496      0.1800      
Fat          0.0032      0.0112 0.9136 0.0288     0.7651      0.4024      
Protein      0.0009      0.0000 0.1661 0.0000     0.2424      0.4086      
Fat.Protein              0.2051 0.3596 0.1653     0.4293      0.7103      
K            0.2051             0.5064 0.0000     0.4413      0.1733      
NA.          0.3596      0.5064        0.0001     0.3092      0.0825      
NA.K.Ratio   0.1653      0.0000 0.0001            0.5937      0.7853      
Sleep.Score  0.4293      0.4413 0.3092 0.5937                 0.7492      
FitBit.Steps 0.7103      0.1733 0.0825 0.7853     0.7492                  
